…
``` r
by_country <- by_country %>% 
  mutate(model = models(data))
by_country
```

    ## # A tibble: 142 x 4
    ##    country     continent data              model 
    ##    <fct>       <fct>     <list>            <list>
    ##  1 Afghanistan Asia      <tibble [12 x 4]> <lm>  
    ##  2 Albania     Europe    <tibble [12 x 4]> <lm>  
    ##  3 Algeria     Africa    <tibble [12 x 4]> <lm>  
    ##  4 Angola      Africa    <tibble [12 x 4]> <lm>  
    ##  5 Argentina   Americas  <tibble [12 x 4]> <lm>  
    ##  6 Australia   Oceania   <tibble [12 x 4]> <lm>  
    ##  7 Austria     Europe    <tibble [12 x 4]> <lm>  
    ##  8 Bahrain     Asia      <tibble [12 x 4]> <lm>  
    ##  9 Bangladesh  Asia      <tibble [12 x 4]> <lm>  
    ## 10 Belgium     Europe    <tibble [12 x 4]> <lm>  
    ## # ... with 132 more rows
